code-example/py_min.vcd
$date
	Thu Oct 19 11:27:59 2023
$end
$version
	QuestaSim Version 2020.4
$end
$timescale
	1ns
$end
$scope module qcount $end
$var wire 1 ! clk $end
$var wire 1 " reset $end
$var wire 1 # count [2] $end
$var wire 1 $ count [1] $end
$var wire 1 % count [0] $end
$var wire 1 & r_count [2] $end
$var wire 1 ' r_count [1] $end
$var wire 1 ( r_count [0] $end
$upscope $end
$enddefinitions $end
#0
1!
1"
x#
x$
x%
x&
x'
x(
1!
1"
#5
0!
#10
1!
0&
0'
0(
0#
0$
0%
#15
0!
#20
1!
0"
#25
0!
#30
1!
1(
1%
#35
0!
#40
1!
1'
0(
1$
0%
#45
0!
1#
0$
1%
#50
1!
1(
0#
1$
#55
0!
#60
1!
1&
0'
0(
1#
0$
0%
#65
0!
#70
1!
0&
0#
1"
#75
0!
#80
1!
0"
#85
0!
#90
1!
1(
1%
#95
0!
#100
1!
1'
0(
1$
0%
#105
0!
#110
1!
1(
1%
#115
0!
1&
0(
1#
0%
#120
1!
1(
1%
#125
0!
#130
1!
0&
0'
0(
0#
0$
0%
1"
#135
0!
#140
1!
0"
#145
0!
#150
1!
1(
1%
#155
0!
#160
1!
1'
0(
1$
0%
#165
0!
#170
1!
1(
1%
#175
0!
#180
1!
1&
0'
0(
1#
0$
0%
